{
	"info": {
		"_postman_id": "c7ff4ef1-f3d2-48de-a856-bf043b0a3f8f",
		"name": "Training - Gitlab",
		"schema": "https://schema.getpostman.com/json/collection/v2.1.0/collection.json",
		"_exporter_id": "15396791"
	},
	"item": [
		{
			"name": "Create Fork",
			"request": {
				"method": "POST",
				"header": [],
				"url": {
					"raw": "{{GITLAB_URL}}/api/v4/projects/{{SOURCE_PROJECT_ID}}/fork?namespace_id={{NAMESPACE_ID}}&name=groncajolo",
					"host": [
						"{{GITLAB_URL}}"
					],
					"path": [
						"api",
						"v4",
						"projects",
						"{{SOURCE_PROJECT_ID}}",
						"fork"
					],
					"query": [
						{
							"key": null,
							"value": "",
							"disabled": true
						},
						{
							"key": "namespace_id",
							"value": "{{NAMESPACE_ID}}"
						},
						{
							"key": "name",
							"value": "groncajolo"
						}
					]
				}
			},
			"response": []
		},
		{
			"name": "List projects",
			"event": [
				{
					"listen": "test",
					"script": {
						"exec": [
							""
						],
						"type": "text/javascript"
					}
				}
			],
			"request": {
				"auth": {
					"type": "bearer",
					"bearer": [
						{
							"key": "token",
							"value": "glpat-CZeLDw5ANk4gn6tWrrwK",
							"type": "string"
						}
					]
				},
				"method": "GET",
				"header": [],
				"url": {
					"raw": "{{GITLAB_URL}}/api/v4/projects?search=test&owned=true",
					"host": [
						"{{GITLAB_URL}}"
					],
					"path": [
						"api",
						"v4",
						"projects"
					],
					"query": [
						{
							"key": "search",
							"value": "test"
						},
						{
							"key": "owned",
							"value": "true"
						}
					]
				}
			},
			"response": []
		},
		{
			"name": "Create new branch",
			"event": [
				{
					"listen": "prerequest",
					"script": {
						"exec": [
							""
						],
						"type": "text/javascript"
					}
				}
			],
			"request": {
				"method": "POST",
				"header": [],
				"url": {
					"raw": "{{GITLAB_URL}}/api/v4/projects/{{GITLAB_FORK_ID}}/repository/branches?branch={{BRANCH_NAME}}&ref=master",
					"host": [
						"{{GITLAB_URL}}"
					],
					"path": [
						"api",
						"v4",
						"projects",
						"{{GITLAB_FORK_ID}}",
						"repository",
						"branches"
					],
					"query": [
						{
							"key": "branch",
							"value": "{{BRANCH_NAME}}"
						},
						{
							"key": "ref",
							"value": "master"
						}
					]
				}
			},
			"response": []
		},
		{
			"name": "Create new Merge Request",
			"request": {
				"method": "POST",
				"header": [],
				"url": {
					"raw": "{{GITLAB_URL}}/api/v4/projects/{{GITLAB_FORK_ID}}/merge_requests?source_branch={{BRANCH_NAME}}&target_branch=master&title=First assignment",
					"host": [
						"{{GITLAB_URL}}"
					],
					"path": [
						"api",
						"v4",
						"projects",
						"{{GITLAB_FORK_ID}}",
						"merge_requests"
					],
					"query": [
						{
							"key": "source_branch",
							"value": "{{BRANCH_NAME}}"
						},
						{
							"key": "target_branch",
							"value": "master"
						},
						{
							"key": "title",
							"value": "First assignment"
						}
					]
				}
			},
			"response": []
		}
	],
	"auth": {
		"type": "bearer",
		"bearer": [
			{
				"key": "token",
				"value": "{{GITLAB_TOKEN}}",
				"type": "string"
			}
		]
	},
	"event": [
		{
			"listen": "prerequest",
			"script": {
				"type": "text/javascript",
				"exec": [
					""
				]
			}
		},
		{
			"listen": "test",
			"script": {
				"type": "text/javascript",
				"exec": [
					""
				]
			}
		}
	],
	"variable": [
		{
			"key": "GITLAB_TOKEN",
			"value": "",
			"type": "string"
		},
		{
			"key": "SOURCE_PROJECT_ID",
			"value": "41401676"
		},
		{
			"key": "NAMESPACE_ID",
			"value": "60811926"
		},
		{
			"key": "GITLAB_URL",
			"value": "https://gitlab.com"
		},
		{
			"key": "GITLAB_FORK_ID",
			"value": "41450297"
		},
		{
			"key": "BRANCH_NAME",
			"value": "1-assignment"
		}
	]
}